/* XPM */
static char * close_inactive_xpm[] = {
"20 25 4 1",
" 	c None",
".	c #808080",
"+	c #565652",
"@	c #26261F",
"                    ",
"                    ",
"                    ",
"                    ",
"                    ",
"....................",
".++++++++++++++++++@",
".++++++++++++++++++@",
".++++++++++++++++++@",
".+.....@+++.....@++@",
".++.++++@+.++++@+++@",
".++..+++@+.+++@@+++@",
".+++..+++.+++@@++++@",
".++++.+++++++@+++++@",
".+++++.+++++@++++++@",
".++++.+++++++@+++++@",
".+++..+++@+++@@++++@",
".++..+++@+.+++@@+++@",
".++.++++@+.++++@+++@",
".+.@@@@@+++.@@@@@++@",
".++++++++++++++++++@",
".++++++++++++++++++@",
".++++++++++++++++++@",
".++++++++++++++++++@",
".@@@@@@@@@@@@@@@@@@@"};
