/* XPM */
static char * maximize_toggled_pressed_xpm[] = {
"20 25 6 1",
" 	c None",
".	c #000000",
"+	c #2F2F2F",
"@	c #2D2D2D",
"#	c #6F6F6F",
"$	c #707070",
"                    ",
"                    ",
"                    ",
"                    ",
"                    ",
"....................",
".+++@@@@@@@@@@@@@@@#",
".+++@@@@@@@@@@@@@@@#",
".+++@@@@@@@@@@@@@@@#",
".+++..........#@@@@#",
".+++.@@@@@@@@@#@@@@#",
".+++.@@@@@@@@@#@@@@#",
".+++.@@@@@@@@@#@@@@#",
".+++.@@@@@@@@@#@@@@#",
".+++.@@@@@@@@@#@@@@#",
".+++.@@@@@@@@@#@@@@#",
".+++.@@@@@@@@@#@@@@#",
".+++.@@@@@@@@@#@@@@#",
".+++.@@@@@@@@@#@@@@#",
".+++.##########@@@@#",
".+++@@@@@@@@@@@@@@@#",
".+++@@@@@@@@@@@@@@@#",
".+++@@@@@@@@@@@@@@@#",
".+++@@@@@@@@@@@@@@@#",
".$$#################"};
