/* XPM */
static char * title_3_inactive_xpm[] = {
"5 25 4 1",
" 	c None",
".	c #808080",
"+	c #565652",
"@	c #26261F",
".....",
".....",
"+++++",
"+++++",
"@@@@@",
".....",
"+++++",
"+++++",
"+++++",
"+++++",
"+++++",
"+++++",
"+++++",
"+++++",
"+++++",
"+++++",
"+++++",
"+++++",
"+++++",
"+++++",
"+++++",
"+++++",
"+++++",
"+++++",
"@@@@@"};
