/* XPM */
static char * top_left_inactive_xpm[] = {
"5 26 4 1",
" 	c None",
".	c #808080",
"+	c #565652",
"@	c #26261F",
".....",
".....",
"..+++",
"..+++",
"..++@",
"..++@",
"..++@",
"..++@",
"..++@",
"..++@",
"..++@",
"..++@",
"..++@",
"..++@",
"..++@",
"..++@",
"..++@",
"..++@",
"..++@",
"..++@",
"..++@",
"..++@",
"..++@",
"..++@",
".@@@@",
"....@"};
