/* XPM */
static char * top_right_inactive_xpm[] = {
"5 26 4 1",
" 	c None",
".	c #808080",
"+	c #26261F",
"@	c #565652",
".....",
"....+",
"@@@++",
"@@@++",
".@@++",
".@@++",
".@@++",
".@@++",
".@@++",
".@@++",
".@@++",
".@@++",
".@@++",
".@@++",
".@@++",
".@@++",
".@@++",
".@@++",
".@@++",
".@@++",
".@@++",
".@@++",
".@@++",
".@@++",
".++++",
"....+"};
